…
    ## 
    ## $data
    ## Source: local data frame [116 x 7]
    ## Groups: Conflict, Task, timepoint [116]
    ## 
    ##    Conflict  Task timepoint    roi   val grouping  color
    ##       <int> <int>     <dbl>  <chr> <dbl>   <fctr> <fctr>
    ## 1         0     1         0 target     0        0      0
    ## 2         0     1        25 target     0        0      0
    ## 3         0     1        50 target     0        0      0
    ## 4         0     1        75 target     0        0      0
    ## 5         0     1       100 target     0        0      0
    ## 6         0     1       125 target     0        0      0
    ## 7         0     1       150 target     0        0      0
    ## 8         0     1       175 target     0        0      0
    ## 9         0     1       200 target     0        0      0
    ## 10        0     1       225 target     0        0      0
    ## # ... with 106 more rows
…
    ## 
    ## $data
    ## Source: local data frame [232 x 7]
    ## Groups: roi, Conflict, Task [8]
    ## 
    ##           roi Conflict  Task timepoint   val     grouping  color
    ##         <chr>    <int> <int>     <dbl> <dbl>       <fctr> <fctr>
    ## 1  distractor        0     1         0   NaN distractor.0      0
    ## 2  distractor        0     1        25   NaN distractor.0      0
    ## 3  distractor        0     1        50   NaN distractor.0      0
    ## 4  distractor        0     1        75   NaN distractor.0      0
    ## 5  distractor        0     1       100   NaN distractor.0      0
    ## 6  distractor        0     1       125   NaN distractor.0      0
    ## 7  distractor        0     1       150   NaN distractor.0      0
    ## 8  distractor        0     1       175   NaN distractor.0      0
    ## 9  distractor        0     1       200   NaN distractor.0      0
    ## 10 distractor        0     1       225   NaN distractor.0      0
    ## # ... with 222 more rows
…
    ## 
    ## $data
    ## Source: local data frame [116 x 7]
    ## Groups: roi, Conflict, Task [4]
    ## 
    ##           roi Conflict  Task timepoint   val     grouping        color
    ##         <chr>    <int> <int>     <dbl> <dbl>       <fctr>       <fctr>
    ## 1  difference        0     1         0   NaN difference.0 difference.0
    ## 2  difference        0     1        25   NaN difference.0 difference.0
    ## 3  difference        0     1        50   NaN difference.0 difference.0
    ## 4  difference        0     1        75   NaN difference.0 difference.0
    ## 5  difference        0     1       100   NaN difference.0 difference.0
    ## 6  difference        0     1       125   NaN difference.0 difference.0
    ## 7  difference        0     1       150   NaN difference.0 difference.0
    ## 8  difference        0     1       175   NaN difference.0 difference.0
    ## 9  difference        0     1       200   NaN difference.0 difference.0
    ## 10 difference        0     1       225   NaN difference.0 difference.0
    ## # ... with 106 more rows
…
    ## 
    ## $data
    ## Source: local data frame [58 x 7]
    ## Groups: roi, Conflict, Task [2]
    ## 
    ##           roi Conflict  Task timepoint         val     grouping
    ##         <chr>    <int> <int>     <dbl>       <dbl>       <fctr>
    ## 1  difference        1     1         0  0.25000000 difference.1
    ## 2  difference        1     1        25  0.05555556 difference.1
    ## 3  difference        1     1        50  0.03846154 difference.1
    ## 4  difference        1     1        75  0.02777778 difference.1
    ## 5  difference        1     1       100  0.02500000 difference.1
    ## 6  difference        1     1       125  0.02380952 difference.1
    ## 7  difference        1     1       150  0.02380952 difference.1
    ## 8  difference        1     1       175 -0.04545455 difference.1
    ## 9  difference        1     1       200 -0.36708861 difference.1
    ## 10 difference        1     1       225 -0.46642857 difference.1
    ## # ... with 48 more rows, and 1 more variables: color <fctr>
