itrackR Basics
…
## 
## $data
## # A tibble: 108 x 10
##    Conflict  Task   bin        val    roi epoch_start epoch_end binwidth
##       <int> <int> <dbl>      <dbl>  <chr>       <dbl>     <dbl>    <dbl>
## 1         0     1    25 0.00000000 target           0       700       25
## 2         0     1   250 0.05501618 target           0       700       25
## 3         0     1   275 0.12096379 target           0       700       25
## 4         0     1   300 0.21007295 target           0       700       25
## 5         0     1   325 0.29408687 target           0       700       25
## 6         0     1   350 0.38549711 target           0       700       25
## 7         0     1   375 0.53257771 target           0       700       25
## 8         0     1   400 0.69080616 target           0       700       25
## 9         0     1   425 0.80419517 target           0       700       25
## 10        0     1   450 0.86383840 target           0       700       25
## # ... with 98 more rows, and 2 more variables: lines <fctr>, cols <fctr>
…
## 
## $data
## # A tibble: 162 x 10
##       roi Conflict  Task   bin        val epoch_start epoch_end binwidth
## *   <chr>    <int> <int> <dbl>      <dbl>       <dbl>     <dbl>    <dbl>
## 1  target        0     1    25 0.00000000           0       700       25
## 2  target        0     1   250 0.05501618           0       700       25
## 3  target        0     1   275 0.12096379           0       700       25
## 4  target        0     1   300 0.21007295           0       700       25
## 5  target        0     1   325 0.29408687           0       700       25
## 6  target        0     1   350 0.38549711           0       700       25
## 7  target        0     1   375 0.53257771           0       700       25
## 8  target        0     1   400 0.69080616           0       700       25
## 9  target        0     1   425 0.80419517           0       700       25
## 10 target        0     1   450 0.86383840           0       700       25
## # ... with 152 more rows, and 2 more variables: lines <fctr>, cols <fctr>
…
## 
## $data
## Source: local data frame [54 x 10]
## Groups: bin, epoch_start, epoch_end, binwidth, Conflict [?]
## 
##      bin epoch_start epoch_end binwidth Conflict  Task         val
##    <dbl>       <dbl>     <dbl>    <dbl>    <int> <int>       <dbl>
## 1     25           0       700       25        1     1  0.03846154
## 2     25           0       700       25        1     2  0.00000000
## 3    250           0       700       25        1     1 -0.38990110
## 4    250           0       700       25        1     2  0.41908676
## 5    275           0       700       25        1     1 -0.36147101
## 6    275           0       700       25        1     2  0.42236287
## 7    300           0       700       25        1     1 -0.31276220
## 8    300           0       700       25        1     2  0.44291667
## 9    325           0       700       25        1     1 -0.23526658
## 10   325           0       700       25        1     2  0.44934211
## # ... with 44 more rows, and 3 more variables: roi <chr>, lines <fctr>,
## #   rows <fctr>
